Workingdir: /home/kimmiga/pro/src/src
Started at Fri Sep 20 11:38:46 CEST 2019
Running job cnnopt using 4 cpus per node with given JID 3647815 on queue meta_gpu-black
2019-09-20 11:38:58,554 [INFO ]  WORKER: start listening for jobs
2019-09-20 11:38:58,558 [INFO ]  DISPATCHER: started the 'discover_worker' thread
2019-09-20 11:38:58,560 [INFO ]  DISPATCHER: started the 'job_runner' thread
2019-09-20 11:38:58,562 [INFO ]  WORKER: start listening for jobs
2019-09-20 11:38:58,563 [INFO ]  WORKER: start listening for jobs
2019-09-20 11:38:58,567 [INFO ]  WORKER: start listening for jobs
2019-09-20 11:38:58,576 [INFO ]  DISPATCHER: Pyro daemon running on localhost:40329
2019-09-20 11:38:58,586 [INFO ]  DISPATCHER: discovered new worker, hpbandster.run_ak_cnn_bohb_normal.worker.metagpu8.23736.1140160935991104
2019-09-20 11:38:58,588 [INFO ]  DISPATCHER: discovered new worker, hpbandster.run_ak_cnn_bohb_normal.worker.metagpu8.23736.0140160935991104
2019-09-20 11:38:58,592 [INFO ]  HBMASTER: adjusted queue size to (1, 2)
2019-09-20 11:38:58,592 [INFO ]  DISPATCHER: A new worker triggered discover_worker
2019-09-20 11:38:58,596 [INFO ]  DISPATCHER: discovered new worker, hpbandster.run_ak_cnn_bohb_normal.worker.metagpu8.23736.3140160935991104
2019-09-20 11:38:58,597 [INFO ]  DISPATCHER: discovered new worker, hpbandster.run_ak_cnn_bohb_normal.worker.metagpu8.23736.2140160935991104
2019-09-20 11:38:58,604 [INFO ]  HBMASTER: adjusted queue size to (3, 4)
2019-09-20 11:38:58,604 [INFO ]  DISPATCHER: A new worker triggered discover_worker
2019-09-20 11:38:58,605 [INFO ]  HBMASTER: starting run at 1568972338.6051493
2019-09-20 11:38:58,623 [INFO ]  WORKER: start processing job (0, 0, 0)
2019-09-20 11:38:58,632 [INFO ]  WORKER: start processing job (0, 0, 2)
2019-09-20 11:38:58,637 [INFO ]  WORKER: start processing job (0, 0, 1)
2019-09-20 11:38:58,639 [INFO ]  WORKER: start processing job (0, 0, 3)
2019-09-20 11:39:00,396 [INFO ]  Hyperparameters:{'conv1': {'out_channels': 3, 'kernel_size': 4, 'stride': 2, 'padding': 2}, 'conv2_active': True, 'conv2': {'out_channels': 5, 'kernel_size': 3, 'stride': 1, 'padding': 1}, 'pool_type': 'max', 'pool': {'kernel_size': 4, 'stride': 2}, 'fc_layers': 3, 'fc_layer1': 226, 'fc_layer2': 308, 'fc_layer3': 149, 'fc_layer4': 128, 'optimizer': <class 'torch.optim.adam.Adam'>, 'loss': <class 'torch.nn.modules.loss.CrossEntropyLoss'>, 'batch_size': 96, 'batch_normalization': True, 'learning_rate': 0.01, 'weight_decay': 0.0, 'dropout': 0.3, 'beta1': 0.9, 'beta2': 0.999}
2019-09-20 11:39:00,397 [INFO ]  Generated Network:
2019-09-20 11:39:00,398 [INFO ]  Hyperparameters:{'conv1': {'out_channels': 5, 'kernel_size': 4, 'stride': 4, 'padding': 2}, 'conv2_active': True, 'conv2': {'out_channels': 8, 'kernel_size': 3, 'stride': 1, 'padding': 1}, 'pool_type': 'avg', 'pool': {'kernel_size': 4, 'stride': 1}, 'fc_layers': 2, 'fc_layer1': 353, 'fc_layer2': 454, 'fc_layer3': 128, 'fc_layer4': 128, 'optimizer': <class 'torch.optim.adam.Adam'>, 'loss': <class 'torch.nn.modules.loss.CrossEntropyLoss'>, 'batch_size': 96, 'batch_normalization': True, 'learning_rate': 0.01, 'weight_decay': 0.0, 'dropout': 0.3, 'beta1': 0.9, 'beta2': 0.999}
2019-09-20 11:39:00,398 [INFO ]  Generated Network:
2019-09-20 11:39:00,401 [INFO ]  Hyperparameters:{'conv1': {'out_channels': 3, 'kernel_size': 4, 'stride': 2, 'padding': 2}, 'conv2_active': True, 'conv2': {'out_channels': 5, 'kernel_size': 4, 'stride': 2, 'padding': 2}, 'pool_type': 'avg', 'pool': {'kernel_size': 3, 'stride': 3}, 'fc_layers': 3, 'fc_layer1': 189, 'fc_layer2': 62, 'fc_layer3': 248, 'fc_layer4': 128, 'optimizer': <class 'torch.optim.adam.Adam'>, 'loss': <class 'torch.nn.modules.loss.CrossEntropyLoss'>, 'batch_size': 96, 'batch_normalization': True, 'learning_rate': 0.01, 'weight_decay': 0.0, 'dropout': 0.3, 'beta1': 0.9, 'beta2': 0.999}
2019-09-20 11:39:00,401 [INFO ]  Generated Network:
2019-09-20 11:39:00,402 [INFO ]  Hyperparameters:{'conv1': {'out_channels': 4, 'kernel_size': 3, 'stride': 3, 'padding': 1}, 'conv2_active': True, 'conv2': {'out_channels': 6, 'kernel_size': 2, 'stride': 1, 'padding': 1}, 'pool_type': 'avg', 'pool': {'kernel_size': 2, 'stride': 1}, 'fc_layers': 3, 'fc_layer1': 262, 'fc_layer2': 451, 'fc_layer3': 76, 'fc_layer4': 128, 'optimizer': <class 'torch.optim.adam.Adam'>, 'loss': <class 'torch.nn.modules.loss.CrossEntropyLoss'>, 'batch_size': 96, 'batch_normalization': True, 'learning_rate': 0.01, 'weight_decay': 0.0, 'dropout': 0.3, 'beta1': 0.9, 'beta2': 0.999}
2019-09-20 11:39:00,402 [INFO ]  Generated Network:
2019-09-20 11:39:00,419 [INFO ]  
----------------------------------------------------------------
        Layer (type)               Output Shape         Param #
================================================================
            Conv2d-1            [-1, 3, 15, 15]              51
       BatchNorm2d-2            [-1, 3, 15, 15]               6
              ReLU-3            [-1, 3, 15, 15]               0
            Conv2d-4              [-1, 5, 8, 8]             245
       BatchNorm2d-5              [-1, 5, 8, 8]              10
              ReLU-6              [-1, 5, 8, 8]               0
         AvgPool2d-7              [-1, 5, 2, 2]               0
            Linear-8                  [-1, 189]           3,969
       BatchNorm1d-9                  [-1, 189]             378
          Dropout-10                  [-1, 189]               0
           Linear-11                   [-1, 62]          11,780
      BatchNorm1d-12                   [-1, 62]             124
          Dropout-13                   [-1, 62]               0
           Linear-14                  [-1, 248]          15,624
      BatchNorm1d-15                  [-1, 248]             496
          Dropout-16                  [-1, 248]               0
           Linear-17                   [-1, 49]          12,201
================================================================
Total params: 44,884
Trainable params: 44,884
Non-trainable params: 0
----------------------------------------------------------------
Input size (MB): 0.00
Forward/backward pass size (MB): 0.03
Params size (MB): 0.17
Estimated Total Size (MB): 0.21
----------------------------------------------------------------

2019-09-20 11:39:00,420 [INFO ]  Learning Parameters:
learning_rate: 0.01
optimizer: Adam (
Parameter Group 0
    amsgrad: False
    betas: (0.9, 0.999)
    eps: 1e-08
    lr: 0.01
    weight_decay: 0
)
num_epochs: 20
batch_size: 96
train_criterion: CrossEntropyLoss()
2019-09-20 11:39:00,420 [INFO ]  ##################################################
2019-09-20 11:39:00,420 [INFO ]  Epoch [1/20]
2019-09-20 11:39:00,423 [INFO ]  
----------------------------------------------------------------
        Layer (type)               Output Shape         Param #
================================================================
            Conv2d-1              [-1, 5, 8, 8]              85
       BatchNorm2d-2              [-1, 5, 8, 8]              10
              ReLU-3              [-1, 5, 8, 8]               0
            Conv2d-4              [-1, 8, 8, 8]             368
       BatchNorm2d-5              [-1, 8, 8, 8]              16
              ReLU-6              [-1, 8, 8, 8]               0
         AvgPool2d-7              [-1, 8, 5, 5]               0
            Linear-8                  [-1, 353]          70,953
       BatchNorm1d-9                  [-1, 353]             706
          Dropout-10                  [-1, 353]               0
           Linear-11                  [-1, 454]         160,716
      BatchNorm1d-12                  [-1, 454]             908
          Dropout-13                  [-1, 454]               0
           Linear-14                   [-1, 49]          22,295
================================================================
Total params: 256,057
Trainable params: 256,057
Non-trainable params: 0
----------------------------------------------------------------
Input size (MB): 0.00
Forward/backward pass size (MB): 0.04
Params size (MB): 0.98
Estimated Total Size (MB): 1.02
----------------------------------------------------------------

2019-09-20 11:39:00,424 [INFO ]  Learning Parameters:
learning_rate: 0.01
optimizer: Adam (
Parameter Group 0
    amsgrad: False
    betas: (0.9, 0.999)
    eps: 1e-08
    lr: 0.01
    weight_decay: 0
)
num_epochs: 20
batch_size: 96
train_criterion: CrossEntropyLoss()
2019-09-20 11:39:00,424 [INFO ]  
----------------------------------------------------------------
        Layer (type)               Output Shape         Param #
================================================================
            Conv2d-1            [-1, 3, 15, 15]              51
       BatchNorm2d-2            [-1, 3, 15, 15]               6
              ReLU-3            [-1, 3, 15, 15]               0
            Conv2d-4            [-1, 5, 15, 15]             140
       BatchNorm2d-5            [-1, 5, 15, 15]              10
              ReLU-6            [-1, 5, 15, 15]               0
         MaxPool2d-7              [-1, 5, 6, 6]               0
            Linear-8                  [-1, 226]          40,906
       BatchNorm1d-9                  [-1, 226]             452
          Dropout-10                  [-1, 226]               0
           Linear-11                  [-1, 308]          69,916
      BatchNorm1d-12                  [-1, 308]             616
          Dropout-13                  [-1, 308]               0
           Linear-14                  [-1, 149]          46,041
      BatchNorm1d-15                  [-1, 149]             298
          Dropout-16                  [-1, 149]               0
           Linear-17                   [-1, 49]           7,350
================================================================
Total params: 165,786
Trainable params: 165,786
Non-trainable params: 0
----------------------------------------------------------------
Input size (MB): 0.00
Forward/backward pass size (MB): 0.06
Params size (MB): 0.63
Estimated Total Size (MB): 0.69
----------------------------------------------------------------

2019-09-20 11:39:00,424 [INFO ]  ##################################################
2019-09-20 11:39:00,424 [INFO ]  Learning Parameters:
learning_rate: 0.01
optimizer: Adam (
Parameter Group 0
    amsgrad: False
    betas: (0.9, 0.999)
    eps: 1e-08
    lr: 0.01
    weight_decay: 0
)
num_epochs: 20
batch_size: 96
train_criterion: CrossEntropyLoss()
2019-09-20 11:39:00,424 [INFO ]  Epoch [1/20]
2019-09-20 11:39:00,425 [INFO ]  ##################################################
2019-09-20 11:39:00,425 [INFO ]  
----------------------------------------------------------------
        Layer (type)               Output Shape         Param #
================================================================
            Conv2d-1            [-1, 4, 10, 10]              40
       BatchNorm2d-2            [-1, 4, 10, 10]               8
              ReLU-3            [-1, 4, 10, 10]               0
            Conv2d-4            [-1, 6, 11, 11]             102
       BatchNorm2d-5            [-1, 6, 11, 11]              12
              ReLU-6            [-1, 6, 11, 11]               0
         AvgPool2d-7            [-1, 6, 10, 10]               0
            Linear-8                  [-1, 262]         157,462
       BatchNorm1d-9                  [-1, 262]             524
          Dropout-10                  [-1, 262]               0
           Linear-11                  [-1, 451]         118,613
      BatchNorm1d-12                  [-1, 451]             902
          Dropout-13                  [-1, 451]               0
           Linear-14                   [-1, 76]          34,352
      BatchNorm1d-15                   [-1, 76]             152
          Dropout-16                   [-1, 76]               0
           Linear-17                   [-1, 49]           3,773
================================================================
Total params: 315,940
Trainable params: 315,940
Non-trainable params: 0
----------------------------------------------------------------
Input size (MB): 0.00
Forward/backward pass size (MB): 0.05
Params size (MB): 1.21
Estimated Total Size (MB): 1.26
----------------------------------------------------------------

2019-09-20 11:39:00,425 [INFO ]  Epoch [1/20]
2019-09-20 11:39:00,426 [INFO ]  Learning Parameters:
learning_rate: 0.01
optimizer: Adam (
Parameter Group 0
    amsgrad: False
    betas: (0.9, 0.999)
    eps: 1e-08
    lr: 0.01
    weight_decay: 0
)
num_epochs: 20
batch_size: 96
train_criterion: CrossEntropyLoss()
2019-09-20 11:39:00,426 [INFO ]  ##################################################
2019-09-20 11:39:00,426 [INFO ]  Epoch [1/20]
2019-09-20 11:43:28,448 [INFO ]  Finished 36.22470053696819% of training
2019-09-20 11:43:28,449 [INFO ]  Train loss 1.308408
2019-09-20 11:43:28,450 [INFO ]  Train accuracy 64.984794
2019-09-20 11:43:28,493 [INFO ]  Finished 18.669971086327962% of training
2019-09-20 11:43:28,498 [INFO ]  Train loss 2.295365
2019-09-20 11:43:28,498 [INFO ]  Train accuracy 37.446994
2019-09-20 11:43:28,982 [INFO ]  Finished 9.830648492358529% of training
2019-09-20 11:43:28,984 [INFO ]  Train loss 1.742417
2019-09-20 11:43:28,985 [INFO ]  Train accuracy 53.160012
2019-09-20 11:43:29,059 [INFO ]  Finished 3.3870301528294093% of training
2019-09-20 11:43:29,060 [INFO ]  Train loss 2.425762
2019-09-20 11:43:29,060 [INFO ]  Train accuracy 35.035568
2019-09-20 11:44:29,399 [INFO ]  Test accuracy 70.166288
2019-09-20 11:44:29,402 [INFO ]  Test Scores: [70.16628801320738]
2019-09-20 11:44:29,403 [INFO ]  Completed: False
2019-09-20 11:44:29,440 [INFO ]  Results for new BEST ARCH parameters: {'loss': 29.833711986792622, 'info': "{'hyperparameters': {'conv1': {'out_channels': 4, 'kernel_size': 3, 'stride': 3, 'padding': 1}, 'conv2_active': True, 'conv2': {'out_channels': 6, 'kernel_size': 2, 'stride': 1, 'padding': 1}, 'pool_type': 'avg', 'pool': {'kernel_size': 2, 'stride': 1}, 'fc_layers': 3, 'fc_layer1': 262, 'fc_layer2': 451, 'fc_layer3': 76, 'fc_layer4': 128, 'optimizer': <class 'torch.optim.adam.Adam'>, 'loss': <class 'torch.nn.modules.loss.CrossEntropyLoss'>, 'batch_size': 96, 'batch_normalization': True, 'learning_rate': 0.01, 'weight_decay': 0.0, 'dropout': 0.3, 'beta1': 0.9, 'beta2': 0.999}, 'test_scores': [70.16628801320738], 'id_str': 'normal', 'id': '0_0_3'}"}
2019-09-20 11:44:29,443 [INFO ]  WORKER: registered result for job (0, 0, 3) with dispatcher
2019-09-20 11:44:29,466 [INFO ]  WORKER: start processing job (0, 0, 4)
2019-09-20 11:44:32,690 [INFO ]  Hyperparameters:{'conv1': {'out_channels': 6, 'kernel_size': 3, 'stride': 1, 'padding': 1}, 'conv2_active': False, 'conv2': {'out_channels': 10, 'kernel_size': 2, 'stride': 2, 'padding': 1}, 'pool_type': 'max', 'pool': {'kernel_size': 2, 'stride': 1}, 'fc_layers': 2, 'fc_layer1': 95, 'fc_layer2': 431, 'fc_layer3': 128, 'fc_layer4': 128, 'optimizer': <class 'torch.optim.adam.Adam'>, 'loss': <class 'torch.nn.modules.loss.CrossEntropyLoss'>, 'batch_size': 96, 'batch_normalization': True, 'learning_rate': 0.01, 'weight_decay': 0.0, 'dropout': 0.3, 'beta1': 0.9, 'beta2': 0.999}
2019-09-20 11:44:32,694 [INFO ]  Generated Network:
2019-09-20 11:44:32,710 [INFO ]  
----------------------------------------------------------------
        Layer (type)               Output Shape         Param #
================================================================
            Conv2d-1            [-1, 6, 28, 28]              60
       BatchNorm2d-2            [-1, 6, 28, 28]              12
              ReLU-3            [-1, 6, 28, 28]               0
         MaxPool2d-4            [-1, 6, 27, 27]               0
            Linear-5                   [-1, 95]         415,625
       BatchNorm1d-6                   [-1, 95]             190
           Dropout-7                   [-1, 95]               0
            Linear-8                  [-1, 431]          41,376
       BatchNorm1d-9                  [-1, 431]             862
          Dropout-10                  [-1, 431]               0
           Linear-11                   [-1, 49]          21,168
================================================================
Total params: 479,293
Trainable params: 479,293
Non-trainable params: 0
----------------------------------------------------------------
Input size (MB): 0.00
Forward/backward pass size (MB): 0.15
Params size (MB): 1.83
Estimated Total Size (MB): 1.98
----------------------------------------------------------------

2019-09-20 11:44:32,710 [INFO ]  Learning Parameters:
learning_rate: 0.01
optimizer: Adam (
Parameter Group 0
    amsgrad: False
    betas: (0.9, 0.999)
    eps: 1e-08
    lr: 0.01
    weight_decay: 0
)
num_epochs: 20
batch_size: 96
train_criterion: CrossEntropyLoss()
2019-09-20 11:44:32,710 [INFO ]  ##################################################
2019-09-20 11:44:32,710 [INFO ]  Epoch [1/20]
2019-09-20 11:44:50,434 [INFO ]  Test accuracy 45.949100
2019-09-20 11:44:50,442 [INFO ]  Test Scores: [45.94909959511494]
2019-09-20 11:44:50,442 [INFO ]  Completed: False
2019-09-20 11:44:50,452 [INFO ]  Result for new ARCH parameters: {'loss': 54.05090040488506, 'info': "{'hyperparameters': {'conv1': {'out_channels': 3, 'kernel_size': 4, 'stride': 2, 'padding': 2}, 'conv2_active': True, 'conv2': {'out_channels': 5, 'kernel_size': 4, 'stride': 2, 'padding': 2}, 'pool_type': 'avg', 'pool': {'kernel_size': 3, 'stride': 3}, 'fc_layers': 3, 'fc_layer1': 189, 'fc_layer2': 62, 'fc_layer3': 248, 'fc_layer4': 128, 'optimizer': <class 'torch.optim.adam.Adam'>, 'loss': <class 'torch.nn.modules.loss.CrossEntropyLoss'>, 'batch_size': 96, 'batch_normalization': True, 'learning_rate': 0.01, 'weight_decay': 0.0, 'dropout': 0.3, 'beta1': 0.9, 'beta2': 0.999}, 'test_scores': [45.94909959511494], 'id_str': 'normal', 'id': '0_0_0'}"}
2019-09-20 11:44:50,459 [INFO ]  WORKER: registered result for job (0, 0, 0) with dispatcher
2019-09-20 11:44:50,522 [INFO ]  WORKER: start processing job (0, 0, 5)
2019-09-20 11:44:53,551 [INFO ]  Hyperparameters:{'conv1': {'out_channels': 2, 'kernel_size': 4, 'stride': 1, 'padding': 2}, 'conv2_active': True, 'conv2': {'out_channels': 3, 'kernel_size': 4, 'stride': 1, 'padding': 2}, 'pool_type': 'avg', 'pool': {'kernel_size': 4, 'stride': 1}, 'fc_layers': 3, 'fc_layer1': 204, 'fc_layer2': 123, 'fc_layer3': 114, 'fc_layer4': 128, 'optimizer': <class 'torch.optim.adam.Adam'>, 'loss': <class 'torch.nn.modules.loss.CrossEntropyLoss'>, 'batch_size': 96, 'batch_normalization': True, 'learning_rate': 0.01, 'weight_decay': 0.0, 'dropout': 0.3, 'beta1': 0.9, 'beta2': 0.999}
2019-09-20 11:44:53,558 [INFO ]  Generated Network:
2019-09-20 11:44:53,581 [INFO ]  
----------------------------------------------------------------
        Layer (type)               Output Shape         Param #
================================================================
            Conv2d-1            [-1, 2, 29, 29]              34
       BatchNorm2d-2            [-1, 2, 29, 29]               4
              ReLU-3            [-1, 2, 29, 29]               0
            Conv2d-4            [-1, 3, 30, 30]              99
       BatchNorm2d-5            [-1, 3, 30, 30]               6
              ReLU-6            [-1, 3, 30, 30]               0
         AvgPool2d-7            [-1, 3, 27, 27]               0
            Linear-8                  [-1, 204]         446,352
       BatchNorm1d-9                  [-1, 204]             408
          Dropout-10                  [-1, 204]               0
           Linear-11                  [-1, 123]          25,215
      BatchNorm1d-12                  [-1, 123]             246
          Dropout-13                  [-1, 123]               0
           Linear-14                  [-1, 114]          14,136
      BatchNorm1d-15                  [-1, 114]             228
          Dropout-16                  [-1, 114]               0
           Linear-17                   [-1, 49]           5,635
================================================================
Total params: 492,363
Trainable params: 492,363
Non-trainable params: 0
----------------------------------------------------------------
Input size (MB): 0.00
Forward/backward pass size (MB): 0.13
Params size (MB): 1.88
Estimated Total Size (MB): 2.01
----------------------------------------------------------------

2019-09-20 11:44:53,581 [INFO ]  Learning Parameters:
learning_rate: 0.01
optimizer: Adam (
Parameter Group 0
    amsgrad: False
    betas: (0.9, 0.999)
    eps: 1e-08
    lr: 0.01
    weight_decay: 0
)
num_epochs: 20
batch_size: 96
train_criterion: CrossEntropyLoss()
2019-09-20 11:44:53,581 [INFO ]  ##################################################
2019-09-20 11:44:53,581 [INFO ]  Epoch [1/20]
2019-09-20 11:44:58,107 [INFO ]  Test accuracy 34.926193
2019-09-20 11:44:58,108 [INFO ]  Test Scores: [34.926192596326295]
2019-09-20 11:44:58,108 [INFO ]  Completed: False
2019-09-20 11:44:58,127 [INFO ]  Result for new ARCH parameters: {'loss': 65.0738074036737, 'info': "{'hyperparameters': {'conv1': {'out_channels': 5, 'kernel_size': 4, 'stride': 4, 'padding': 2}, 'conv2_active': True, 'conv2': {'out_channels': 8, 'kernel_size': 3, 'stride': 1, 'padding': 1}, 'pool_type': 'avg', 'pool': {'kernel_size': 4, 'stride': 1}, 'fc_layers': 2, 'fc_layer1': 353, 'fc_layer2': 454, 'fc_layer3': 128, 'fc_layer4': 128, 'optimizer': <class 'torch.optim.adam.Adam'>, 'loss': <class 'torch.nn.modules.loss.CrossEntropyLoss'>, 'batch_size': 96, 'batch_normalization': True, 'learning_rate': 0.01, 'weight_decay': 0.0, 'dropout': 0.3, 'beta1': 0.9, 'beta2': 0.999}, 'test_scores': [34.926192596326295], 'id_str': 'normal', 'id': '0_0_2'}"}
2019-09-20 11:44:58,135 [INFO ]  WORKER: registered result for job (0, 0, 2) with dispatcher
2019-09-20 11:44:58,178 [INFO ]  WORKER: start processing job (1, 0, 0)
2019-09-20 11:45:00,662 [INFO ]  Hyperparameters:{'conv1': {'out_channels': 5, 'kernel_size': 4, 'stride': 4, 'padding': 2}, 'conv2_active': True, 'conv2': {'out_channels': 8, 'kernel_size': 2, 'stride': 1, 'padding': 1}, 'pool_type': 'avg', 'pool': {'kernel_size': 2, 'stride': 1}, 'fc_layers': 1, 'fc_layer1': 425, 'fc_layer2': 256, 'fc_layer3': 128, 'fc_layer4': 128, 'optimizer': <class 'torch.optim.adam.Adam'>, 'loss': <class 'torch.nn.modules.loss.CrossEntropyLoss'>, 'batch_size': 96, 'batch_normalization': True, 'learning_rate': 0.01, 'weight_decay': 0.0, 'dropout': 0.3, 'beta1': 0.9, 'beta2': 0.999}
2019-09-20 11:45:00,662 [INFO ]  Generated Network:
2019-09-20 11:45:00,679 [INFO ]  
----------------------------------------------------------------
        Layer (type)               Output Shape         Param #
================================================================
            Conv2d-1              [-1, 5, 8, 8]              85
       BatchNorm2d-2              [-1, 5, 8, 8]              10
              ReLU-3              [-1, 5, 8, 8]               0
            Conv2d-4              [-1, 8, 9, 9]             168
       BatchNorm2d-5              [-1, 8, 9, 9]              16
              ReLU-6              [-1, 8, 9, 9]               0
         AvgPool2d-7              [-1, 8, 8, 8]               0
            Linear-8                  [-1, 425]         218,025
       BatchNorm1d-9                  [-1, 425]             850
          Dropout-10                  [-1, 425]               0
           Linear-11                   [-1, 49]          20,874
================================================================
Total params: 240,028
Trainable params: 240,028
Non-trainable params: 0
----------------------------------------------------------------
Input size (MB): 0.00
Forward/backward pass size (MB): 0.04
Params size (MB): 0.92
Estimated Total Size (MB): 0.95
----------------------------------------------------------------

2019-09-20 11:45:00,679 [INFO ]  Learning Parameters:
learning_rate: 0.01
optimizer: Adam (
Parameter Group 0
    amsgrad: False
    betas: (0.9, 0.999)
    eps: 1e-08
    lr: 0.01
    weight_decay: 0
)
num_epochs: 20
batch_size: 96
train_criterion: CrossEntropyLoss()
2019-09-20 11:45:00,680 [INFO ]  ##################################################
2019-09-20 11:45:00,680 [INFO ]  Epoch [1/20]
2019-09-20 11:45:27,469 [INFO ]  Test accuracy 61.278437
2019-09-20 11:45:27,470 [INFO ]  Test Scores: [61.27843670990135]
2019-09-20 11:45:27,470 [INFO ]  Completed: False
2019-09-20 11:45:27,486 [INFO ]  Result for new ARCH parameters: {'loss': 38.72156329009865, 'info': "{'hyperparameters': {'conv1': {'out_channels': 3, 'kernel_size': 4, 'stride': 2, 'padding': 2}, 'conv2_active': True, 'conv2': {'out_channels': 5, 'kernel_size': 3, 'stride': 1, 'padding': 1}, 'pool_type': 'max', 'pool': {'kernel_size': 4, 'stride': 2}, 'fc_layers': 3, 'fc_layer1': 226, 'fc_layer2': 308, 'fc_layer3': 149, 'fc_layer4': 128, 'optimizer': <class 'torch.optim.adam.Adam'>, 'loss': <class 'torch.nn.modules.loss.CrossEntropyLoss'>, 'batch_size': 96, 'batch_normalization': True, 'learning_rate': 0.01, 'weight_decay': 0.0, 'dropout': 0.3, 'beta1': 0.9, 'beta2': 0.999}, 'test_scores': [61.27843670990135], 'id_str': 'normal', 'id': '0_0_1'}"}
2019-09-20 11:45:27,488 [INFO ]  WORKER: registered result for job (0, 0, 1) with dispatcher
2019-09-20 11:45:27,526 [INFO ]  WORKER: start processing job (1, 0, 1)
2019-09-20 11:45:29,564 [INFO ]  Hyperparameters:{'conv1': {'out_channels': 8, 'kernel_size': 3, 'stride': 3, 'padding': 1}, 'conv2_active': True, 'conv2': {'out_channels': 13, 'kernel_size': 4, 'stride': 1, 'padding': 2}, 'pool_type': 'max', 'pool': {'kernel_size': 3, 'stride': 2}, 'fc_layers': 2, 'fc_layer1': 423, 'fc_layer2': 182, 'fc_layer3': 128, 'fc_layer4': 128, 'optimizer': <class 'torch.optim.adam.Adam'>, 'loss': <class 'torch.nn.modules.loss.CrossEntropyLoss'>, 'batch_size': 96, 'batch_normalization': True, 'learning_rate': 0.01, 'weight_decay': 0.0, 'dropout': 0.3, 'beta1': 0.9, 'beta2': 0.999}
2019-09-20 11:45:29,564 [INFO ]  Generated Network:
2019-09-20 11:45:29,610 [INFO ]  
----------------------------------------------------------------
        Layer (type)               Output Shape         Param #
================================================================
            Conv2d-1            [-1, 8, 10, 10]              80
       BatchNorm2d-2            [-1, 8, 10, 10]              16
              ReLU-3            [-1, 8, 10, 10]               0
            Conv2d-4           [-1, 13, 11, 11]           1,677
       BatchNorm2d-5           [-1, 13, 11, 11]              26
              ReLU-6           [-1, 13, 11, 11]               0
         MaxPool2d-7             [-1, 13, 5, 5]               0
            Linear-8                  [-1, 423]         137,898
       BatchNorm1d-9                  [-1, 423]             846
          Dropout-10                  [-1, 423]               0
           Linear-11                  [-1, 182]          77,168
      BatchNorm1d-12                  [-1, 182]             364
          Dropout-13                  [-1, 182]               0
           Linear-14                   [-1, 49]           8,967
================================================================
Total params: 227,042
Trainable params: 227,042
Non-trainable params: 0
----------------------------------------------------------------
Input size (MB): 0.00
Forward/backward pass size (MB): 0.07
Params size (MB): 0.87
Estimated Total Size (MB): 0.94
----------------------------------------------------------------

2019-09-20 11:45:29,611 [INFO ]  Learning Parameters:
learning_rate: 0.01
optimizer: Adam (
Parameter Group 0
    amsgrad: False
    betas: (0.9, 0.999)
    eps: 1e-08
    lr: 0.01
    weight_decay: 0
)
num_epochs: 20
batch_size: 96
train_criterion: CrossEntropyLoss()
2019-09-20 11:45:29,611 [INFO ]  ##################################################
2019-09-20 11:45:29,611 [INFO ]  Epoch [1/20]
2019-09-20 11:49:01,278 [INFO ]  Finished 12.763320941759604% of training
2019-09-20 11:49:01,279 [INFO ]  Train loss 1.512510
2019-09-20 11:49:01,279 [INFO ]  Train accuracy 59.243525
2019-09-20 11:49:22,128 [INFO ]  Finished 5.741429161503511% of training
2019-09-20 11:49:22,129 [INFO ]  Train loss 2.239187
2019-09-20 11:49:22,129 [INFO ]  Train accuracy 40.744903
2019-09-20 11:51:14,822 [INFO ]  Test accuracy 67.681010
2019-09-20 11:51:14,823 [INFO ]  Test Scores: [67.68100998390322]
2019-09-20 11:51:14,823 [INFO ]  Completed: False
2019-09-20 11:51:14,872 [INFO ]  Result for new ARCH parameters: {'loss': 32.31899001609678, 'info': "{'hyperparameters': {'conv1': {'out_channels': 6, 'kernel_size': 3, 'stride': 1, 'padding': 1}, 'conv2_active': False, 'conv2': {'out_channels': 10, 'kernel_size': 2, 'stride': 2, 'padding': 1}, 'pool_type': 'max', 'pool': {'kernel_size': 2, 'stride': 1}, 'fc_layers': 2, 'fc_layer1': 95, 'fc_layer2': 431, 'fc_layer3': 128, 'fc_layer4': 128, 'optimizer': <class 'torch.optim.adam.Adam'>, 'loss': <class 'torch.nn.modules.loss.CrossEntropyLoss'>, 'batch_size': 96, 'batch_normalization': True, 'learning_rate': 0.01, 'weight_decay': 0.0, 'dropout': 0.3, 'beta1': 0.9, 'beta2': 0.999}, 'test_scores': [67.68100998390322], 'id_str': 'normal', 'id': '0_0_4'}"}
2019-09-20 11:51:14,874 [INFO ]  WORKER: registered result for job (0, 0, 4) with dispatcher
2019-09-20 11:51:14,910 [INFO ]  WORKER: start processing job (2, 0, 0)
2019-09-20 11:51:17,507 [INFO ]  Hyperparameters:{'conv1': {'out_channels': 5, 'kernel_size': 3, 'stride': 3, 'padding': 1}, 'conv2_active': False, 'conv2': {'out_channels': 8, 'kernel_size': 2, 'stride': 2, 'padding': 1}, 'pool_type': 'max', 'pool': {'kernel_size': 4, 'stride': 1}, 'fc_layers': 3, 'fc_layer1': 64, 'fc_layer2': 299, 'fc_layer3': 227, 'fc_layer4': 128, 'optimizer': <class 'torch.optim.adam.Adam'>, 'loss': <class 'torch.nn.modules.loss.CrossEntropyLoss'>, 'batch_size': 96, 'batch_normalization': True, 'learning_rate': 0.01, 'weight_decay': 0.0, 'dropout': 0.3, 'beta1': 0.9, 'beta2': 0.999}
2019-09-20 11:51:17,508 [INFO ]  Generated Network:
2019-09-20 11:51:17,513 [INFO ]  
----------------------------------------------------------------
        Layer (type)               Output Shape         Param #
================================================================
            Conv2d-1            [-1, 5, 10, 10]              50
       BatchNorm2d-2            [-1, 5, 10, 10]              10
              ReLU-3            [-1, 5, 10, 10]               0
         MaxPool2d-4              [-1, 5, 7, 7]               0
            Linear-5                   [-1, 64]          15,744
       BatchNorm1d-6                   [-1, 64]             128
           Dropout-7                   [-1, 64]               0
            Linear-8                  [-1, 299]          19,435
       BatchNorm1d-9                  [-1, 299]             598
          Dropout-10                  [-1, 299]               0
           Linear-11                  [-1, 227]          68,100
      BatchNorm1d-12                  [-1, 227]             454
          Dropout-13                  [-1, 227]               0
           Linear-14                   [-1, 49]          11,172
================================================================
Total params: 115,691
Trainable params: 115,691
Non-trainable params: 0
----------------------------------------------------------------
Input size (MB): 0.00
Forward/backward pass size (MB): 0.03
Params size (MB): 0.44
Estimated Total Size (MB): 0.47
----------------------------------------------------------------

2019-09-20 11:51:17,513 [INFO ]  Learning Parameters:
learning_rate: 0.01
optimizer: Adam (
Parameter Group 0
    amsgrad: False
    betas: (0.9, 0.999)
    eps: 1e-08
    lr: 0.01
    weight_decay: 0
)
num_epochs: 20
batch_size: 96
train_criterion: CrossEntropyLoss()
2019-09-20 11:51:17,513 [INFO ]  ##################################################
2019-09-20 11:51:17,513 [INFO ]  Epoch [1/20]
2019-09-20 11:53:22,497 [INFO ]  Test accuracy 41.632292
2019-09-20 11:53:22,514 [INFO ]  Test Scores: [41.63229180733159]
2019-09-20 11:53:22,514 [INFO ]  Completed: False
2019-09-20 11:53:22,565 [INFO ]  Result for new ARCH parameters: {'loss': 58.36770819266841, 'info': "{'hyperparameters': {'conv1': {'out_channels': 2, 'kernel_size': 4, 'stride': 1, 'padding': 2}, 'conv2_active': True, 'conv2': {'out_channels': 3, 'kernel_size': 4, 'stride': 1, 'padding': 2}, 'pool_type': 'avg', 'pool': {'kernel_size': 4, 'stride': 1}, 'fc_layers': 3, 'fc_layer1': 204, 'fc_layer2': 123, 'fc_layer3': 114, 'fc_layer4': 128, 'optimizer': <class 'torch.optim.adam.Adam'>, 'loss': <class 'torch.nn.modules.loss.CrossEntropyLoss'>, 'batch_size': 96, 'batch_normalization': True, 'learning_rate': 0.01, 'weight_decay': 0.0, 'dropout': 0.3, 'beta1': 0.9, 'beta2': 0.999}, 'test_scores': [41.63229180733159], 'id_str': 'normal', 'id': '0_0_5'}"}
2019-09-20 11:53:22,583 [INFO ]  WORKER: registered result for job (0, 0, 5) with dispatcher
2019-09-20 11:53:22,610 [INFO ]  WORKER: start processing job (0, 0, 3)
2019-09-20 11:53:24,496 [INFO ]  Hyperparameters:{'conv1': {'out_channels': 4, 'kernel_size': 3, 'stride': 3, 'padding': 1}, 'conv2_active': True, 'conv2': {'out_channels': 6, 'kernel_size': 2, 'stride': 1, 'padding': 1}, 'pool_type': 'avg', 'pool': {'kernel_size': 2, 'stride': 1}, 'fc_layers': 3, 'fc_layer1': 262, 'fc_layer2': 451, 'fc_layer3': 76, 'fc_layer4': 128, 'optimizer': <class 'torch.optim.adam.Adam'>, 'loss': <class 'torch.nn.modules.loss.CrossEntropyLoss'>, 'batch_size': 96, 'batch_normalization': True, 'learning_rate': 0.01, 'weight_decay': 0.0, 'dropout': 0.3, 'beta1': 0.9, 'beta2': 0.999}
2019-09-20 11:53:24,497 [INFO ]  Generated Network:
2019-09-20 11:53:24,505 [INFO ]  
----------------------------------------------------------------
        Layer (type)               Output Shape         Param #
================================================================
            Conv2d-1            [-1, 4, 10, 10]              40
       BatchNorm2d-2            [-1, 4, 10, 10]               8
              ReLU-3            [-1, 4, 10, 10]               0
            Conv2d-4            [-1, 6, 11, 11]             102
       BatchNorm2d-5            [-1, 6, 11, 11]              12
              ReLU-6            [-1, 6, 11, 11]               0
         AvgPool2d-7            [-1, 6, 10, 10]               0
            Linear-8                  [-1, 262]         157,462
       BatchNorm1d-9                  [-1, 262]             524
          Dropout-10                  [-1, 262]               0
           Linear-11                  [-1, 451]         118,613
      BatchNorm1d-12                  [-1, 451]             902
          Dropout-13                  [-1, 451]               0
           Linear-14                   [-1, 76]          34,352
      BatchNorm1d-15                   [-1, 76]             152
          Dropout-16                   [-1, 76]               0
           Linear-17                   [-1, 49]           3,773
================================================================
Total params: 315,940
Trainable params: 315,940
Non-trainable params: 0
----------------------------------------------------------------
Input size (MB): 0.00
Forward/backward pass size (MB): 0.05
Params size (MB): 1.21
Estimated Total Size (MB): 1.26
----------------------------------------------------------------

2019-09-20 11:53:24,505 [INFO ]  Learning Parameters:
learning_rate: 0.01
optimizer: Adam (
Parameter Group 0
    amsgrad: False
    betas: (0.9, 0.999)
    eps: 1e-08
    lr: 0.01
    weight_decay: 0
)
num_epochs: 20
batch_size: 96
train_criterion: CrossEntropyLoss()
2019-09-20 11:53:24,505 [INFO ]  ##################################################
2019-09-20 11:53:24,505 [INFO ]  Epoch [1/20]
2019-09-20 11:56:41,453 [INFO ]  Finished 34.779016935150764% of training
2019-09-20 11:56:41,454 [INFO ]  Train loss 0.820971
2019-09-20 11:56:41,454 [INFO ]  Train accuracy 77.361686
2019-09-20 11:57:10,574 [INFO ]  Finished 10.491532424617926% of training
2019-09-20 11:57:10,576 [INFO ]  Train loss 1.343266
2019-09-20 11:57:10,576 [INFO ]  Train accuracy 63.824637
2019-09-20 11:57:31,099 [INFO ]  Test accuracy 77.502786
2019-09-20 11:57:31,110 [INFO ]  Test Scores: [77.50278624668874]
2019-09-20 11:57:31,110 [INFO ]  Completed: False
2019-09-20 11:57:31,362 [INFO ]  Results for new BEST ARCH parameters: {'loss': 22.497213753311257, 'info': "{'hyperparameters': {'conv1': {'out_channels': 5, 'kernel_size': 4, 'stride': 4, 'padding': 2}, 'conv2_active': True, 'conv2': {'out_channels': 8, 'kernel_size': 2, 'stride': 1, 'padding': 1}, 'pool_type': 'avg', 'pool': {'kernel_size': 2, 'stride': 1}, 'fc_layers': 1, 'fc_layer1': 425, 'fc_layer2': 256, 'fc_layer3': 128, 'fc_layer4': 128, 'optimizer': <class 'torch.optim.adam.Adam'>, 'loss': <class 'torch.nn.modules.loss.CrossEntropyLoss'>, 'batch_size': 96, 'batch_normalization': True, 'learning_rate': 0.01, 'weight_decay': 0.0, 'dropout': 0.3, 'beta1': 0.9, 'beta2': 0.999}, 'test_scores': [77.50278624668874], 'id_str': 'normal', 'id': '1_0_0'}"}
2019-09-20 11:57:31,366 [INFO ]  WORKER: registered result for job (1, 0, 0) with dispatcher
2019-09-20 11:57:31,436 [INFO ]  WORKER: start processing job (0, 0, 4)
2019-09-20 11:57:33,993 [INFO ]  Hyperparameters:{'conv1': {'out_channels': 6, 'kernel_size': 3, 'stride': 1, 'padding': 1}, 'conv2_active': False, 'conv2': {'out_channels': 10, 'kernel_size': 2, 'stride': 2, 'padding': 1}, 'pool_type': 'max', 'pool': {'kernel_size': 2, 'stride': 1}, 'fc_layers': 2, 'fc_layer1': 95, 'fc_layer2': 431, 'fc_layer3': 128, 'fc_layer4': 128, 'optimizer': <class 'torch.optim.adam.Adam'>, 'loss': <class 'torch.nn.modules.loss.CrossEntropyLoss'>, 'batch_size': 96, 'batch_normalization': True, 'learning_rate': 0.01, 'weight_decay': 0.0, 'dropout': 0.3, 'beta1': 0.9, 'beta2': 0.999}
2019-09-20 11:57:33,993 [INFO ]  Generated Network:
2019-09-20 11:57:34,019 [INFO ]  
----------------------------------------------------------------
        Layer (type)               Output Shape         Param #
================================================================
            Conv2d-1            [-1, 6, 28, 28]              60
       BatchNorm2d-2            [-1, 6, 28, 28]              12
              ReLU-3            [-1, 6, 28, 28]               0
         MaxPool2d-4            [-1, 6, 27, 27]               0
            Linear-5                   [-1, 95]         415,625
       BatchNorm1d-6                   [-1, 95]             190
           Dropout-7                   [-1, 95]               0
            Linear-8                  [-1, 431]          41,376
       BatchNorm1d-9                  [-1, 431]             862
          Dropout-10                  [-1, 431]               0
           Linear-11                   [-1, 49]          21,168
================================================================
Total params: 479,293
Trainable params: 479,293
Non-trainable params: 0
----------------------------------------------------------------
Input size (MB): 0.00
Forward/backward pass size (MB): 0.15
Params size (MB): 1.83
Estimated Total Size (MB): 1.98
----------------------------------------------------------------

2019-09-20 11:57:34,019 [INFO ]  Learning Parameters:
learning_rate: 0.01
optimizer: Adam (
Parameter Group 0
    amsgrad: False
    betas: (0.9, 0.999)
    eps: 1e-08
    lr: 0.01
    weight_decay: 0
)
num_epochs: 20
batch_size: 96
train_criterion: CrossEntropyLoss()
2019-09-20 11:57:34,019 [INFO ]  ##################################################
2019-09-20 11:57:34,019 [INFO ]  Epoch [1/20]
2019-09-20 12:02:08,305 [INFO ]  Test accuracy 69.756399
2019-09-20 12:02:08,306 [INFO ]  Test Scores: [69.75639861447773]
2019-09-20 12:02:08,306 [INFO ]  Completed: False
2019-09-20 12:02:08,427 [INFO ]  Result for new ARCH parameters: {'loss': 30.24360138552227, 'info': "{'hyperparameters': {'conv1': {'out_channels': 8, 'kernel_size': 3, 'stride': 3, 'padding': 1}, 'conv2_active': True, 'conv2': {'out_channels': 13, 'kernel_size': 4, 'stride': 1, 'padding': 2}, 'pool_type': 'max', 'pool': {'kernel_size': 3, 'stride': 2}, 'fc_layers': 2, 'fc_layer1': 423, 'fc_layer2': 182, 'fc_layer3': 128, 'fc_layer4': 128, 'optimizer': <class 'torch.optim.adam.Adam'>, 'loss': <class 'torch.nn.modules.loss.CrossEntropyLoss'>, 'batch_size': 96, 'batch_normalization': True, 'learning_rate': 0.01, 'weight_decay': 0.0, 'dropout': 0.3, 'beta1': 0.9, 'beta2': 0.999}, 'test_scores': [69.75639861447773], 'id_str': 'normal', 'id': '1_0_1'}"}
2019-09-20 12:02:08,429 [INFO ]  WORKER: registered result for job (1, 0, 1) with dispatcher
2019-09-20 12:02:08,438 [INFO ]  WORKER: start processing job (1, 0, 0)
2019-09-20 12:02:10,283 [INFO ]  Hyperparameters:{'conv1': {'out_channels': 5, 'kernel_size': 4, 'stride': 4, 'padding': 2}, 'conv2_active': True, 'conv2': {'out_channels': 8, 'kernel_size': 2, 'stride': 1, 'padding': 1}, 'pool_type': 'avg', 'pool': {'kernel_size': 2, 'stride': 1}, 'fc_layers': 1, 'fc_layer1': 425, 'fc_layer2': 256, 'fc_layer3': 128, 'fc_layer4': 128, 'optimizer': <class 'torch.optim.adam.Adam'>, 'loss': <class 'torch.nn.modules.loss.CrossEntropyLoss'>, 'batch_size': 96, 'batch_normalization': True, 'learning_rate': 0.01, 'weight_decay': 0.0, 'dropout': 0.3, 'beta1': 0.9, 'beta2': 0.999}
2019-09-20 12:02:10,283 [INFO ]  Generated Network:
2019-09-20 12:02:10,288 [INFO ]  
----------------------------------------------------------------
        Layer (type)               Output Shape         Param #
================================================================
            Conv2d-1              [-1, 5, 8, 8]              85
       BatchNorm2d-2              [-1, 5, 8, 8]              10
              ReLU-3              [-1, 5, 8, 8]               0
            Conv2d-4              [-1, 8, 9, 9]             168
       BatchNorm2d-5              [-1, 8, 9, 9]              16
              ReLU-6              [-1, 8, 9, 9]               0
         AvgPool2d-7              [-1, 8, 8, 8]               0
            Linear-8                  [-1, 425]         218,025
       BatchNorm1d-9                  [-1, 425]             850
          Dropout-10                  [-1, 425]               0
           Linear-11                   [-1, 49]          20,874
================================================================
Total params: 240,028
Trainable params: 240,028
Non-trainable params: 0
----------------------------------------------------------------
Input size (MB): 0.00
Forward/backward pass size (MB): 0.04
Params size (MB): 0.92
Estimated Total Size (MB): 0.95
----------------------------------------------------------------

2019-09-20 12:02:10,289 [INFO ]  Learning Parameters:
learning_rate: 0.01
optimizer: Adam (
Parameter Group 0
    amsgrad: False
    betas: (0.9, 0.999)
    eps: 1e-08
    lr: 0.01
    weight_decay: 0
)
num_epochs: 20
batch_size: 96
train_criterion: CrossEntropyLoss()
2019-09-20 12:02:10,289 [INFO ]  ##################################################
2019-09-20 12:02:10,289 [INFO ]  Epoch [1/20]
2019-09-20 12:03:58,023 [INFO ]  Train loss 1.764007
2019-09-20 12:03:58,024 [INFO ]  Train accuracy 51.474187
2019-09-20 12:04:19,290 [INFO ]  Test accuracy 54.992604
2019-09-20 12:04:19,312 [INFO ]  ##################################################
2019-09-20 12:04:19,312 [INFO ]  Epoch [2/20]
2019-09-20 12:05:04,784 [INFO ]  Finished 45.311854605534904% of training
2019-09-20 12:05:04,794 [INFO ]  Train loss 1.204977
2019-09-20 12:05:04,794 [INFO ]  Train accuracy 67.724474
2019-09-20 12:05:49,798 [INFO ]  Test accuracy 73.930524
2019-09-20 12:05:49,806 [INFO ]  Test Scores: [73.93052371406066]
2019-09-20 12:05:49,806 [INFO ]  Completed: False
2019-09-20 12:05:49,844 [INFO ]  Result for new BEST ARCH parameters: {'loss': 26.069476285939345, 'info': "{'hyperparameters': {'conv1': {'out_channels': 4, 'kernel_size': 3, 'stride': 3, 'padding': 1}, 'conv2_active': True, 'conv2': {'out_channels': 6, 'kernel_size': 2, 'stride': 1, 'padding': 1}, 'pool_type': 'avg', 'pool': {'kernel_size': 2, 'stride': 1}, 'fc_layers': 3, 'fc_layer1': 262, 'fc_layer2': 451, 'fc_layer3': 76, 'fc_layer4': 128, 'optimizer': <class 'torch.optim.adam.Adam'>, 'loss': <class 'torch.nn.modules.loss.CrossEntropyLoss'>, 'batch_size': 96, 'batch_normalization': True, 'learning_rate': 0.01, 'weight_decay': 0.0, 'dropout': 0.3, 'beta1': 0.9, 'beta2': 0.999}, 'test_scores': [73.93052371406066], 'id_str': 'normal', 'id': '0_0_3'}"}
2019-09-20 12:05:49,852 [INFO ]  WORKER: registered result for job (0, 0, 3) with dispatcher
2019-09-20 12:05:49,865 [INFO ]  WORKER: start processing job (2, 0, 1)
2019-09-20 12:05:51,904 [INFO ]  Hyperparameters:{'conv1': {'out_channels': 7, 'kernel_size': 4, 'stride': 4, 'padding': 2}, 'conv2_active': True, 'conv2': {'out_channels': 11, 'kernel_size': 2, 'stride': 1, 'padding': 1}, 'pool_type': 'max', 'pool': {'kernel_size': 4, 'stride': 4}, 'fc_layers': 1, 'fc_layer1': 167, 'fc_layer2': 256, 'fc_layer3': 128, 'fc_layer4': 128, 'optimizer': <class 'torch.optim.adam.Adam'>, 'loss': <class 'torch.nn.modules.loss.CrossEntropyLoss'>, 'batch_size': 96, 'batch_normalization': True, 'learning_rate': 0.01, 'weight_decay': 0.0, 'dropout': 0.3, 'beta1': 0.9, 'beta2': 0.999}
2019-09-20 12:05:51,904 [INFO ]  Generated Network:
2019-09-20 12:05:51,909 [INFO ]  
----------------------------------------------------------------
        Layer (type)               Output Shape         Param #
================================================================
            Conv2d-1              [-1, 7, 8, 8]             119
       BatchNorm2d-2              [-1, 7, 8, 8]              14
              ReLU-3              [-1, 7, 8, 8]               0
            Conv2d-4             [-1, 11, 9, 9]             319
       BatchNorm2d-5             [-1, 11, 9, 9]              22
              ReLU-6             [-1, 11, 9, 9]               0
         MaxPool2d-7             [-1, 11, 2, 2]               0
            Linear-8                  [-1, 167]           7,515
       BatchNorm1d-9                  [-1, 167]             334
          Dropout-10                  [-1, 167]               0
           Linear-11                   [-1, 49]           8,232
================================================================
Total params: 16,555
Trainable params: 16,555
Non-trainable params: 0
----------------------------------------------------------------
Input size (MB): 0.00
Forward/backward pass size (MB): 0.04
Params size (MB): 0.06
Estimated Total Size (MB): 0.10
----------------------------------------------------------------

2019-09-20 12:05:51,909 [INFO ]  Learning Parameters:
learning_rate: 0.01
optimizer: Adam (
Parameter Group 0
    amsgrad: False
    betas: (0.9, 0.999)
    eps: 1e-08
    lr: 0.01
    weight_decay: 0
)
num_epochs: 20
batch_size: 96
train_criterion: CrossEntropyLoss()
2019-09-20 12:05:51,909 [INFO ]  ##################################################
2019-09-20 12:05:51,909 [INFO ]  Epoch [1/20]
2019-09-20 12:09:14,272 [INFO ]  Finished 47.37711689384552% of training
2019-09-20 12:09:14,273 [INFO ]  Train loss 1.027939
2019-09-20 12:09:14,273 [INFO ]  Train accuracy 71.894977
2019-09-20 12:10:56,936 [INFO ]  Test accuracy 77.624715
2019-09-20 12:10:56,938 [INFO ]  Test Scores: [77.62471512711292]
2019-09-20 12:10:56,938 [INFO ]  Completed: False
2019-09-20 12:10:56,967 [INFO ]  Result for new BEST ARCH parameters: {'loss': 22.37528487288708, 'info': "{'hyperparameters': {'conv1': {'out_channels': 6, 'kernel_size': 3, 'stride': 1, 'padding': 1}, 'conv2_active': False, 'conv2': {'out_channels': 10, 'kernel_size': 2, 'stride': 2, 'padding': 1}, 'pool_type': 'max', 'pool': {'kernel_size': 2, 'stride': 1}, 'fc_layers': 2, 'fc_layer1': 95, 'fc_layer2': 431, 'fc_layer3': 128, 'fc_layer4': 128, 'optimizer': <class 'torch.optim.adam.Adam'>, 'loss': <class 'torch.nn.modules.loss.CrossEntropyLoss'>, 'batch_size': 96, 'batch_normalization': True, 'learning_rate': 0.01, 'weight_decay': 0.0, 'dropout': 0.3, 'beta1': 0.9, 'beta2': 0.999}, 'test_scores': [77.62471512711292], 'id_str': 'normal', 'id': '0_0_4'}"}
2019-09-20 12:10:56,971 [INFO ]  WORKER: registered result for job (0, 0, 4) with dispatcher
2019-09-20 12:10:56,976 [INFO ]  WORKER: start processing job (0, 0, 4)
2019-09-20 12:10:59,105 [INFO ]  Hyperparameters:{'conv1': {'out_channels': 6, 'kernel_size': 3, 'stride': 1, 'padding': 1}, 'conv2_active': False, 'conv2': {'out_channels': 10, 'kernel_size': 2, 'stride': 2, 'padding': 1}, 'pool_type': 'max', 'pool': {'kernel_size': 2, 'stride': 1}, 'fc_layers': 2, 'fc_layer1': 95, 'fc_layer2': 431, 'fc_layer3': 128, 'fc_layer4': 128, 'optimizer': <class 'torch.optim.adam.Adam'>, 'loss': <class 'torch.nn.modules.loss.CrossEntropyLoss'>, 'batch_size': 96, 'batch_normalization': True, 'learning_rate': 0.01, 'weight_decay': 0.0, 'dropout': 0.3, 'beta1': 0.9, 'beta2': 0.999}
2019-09-20 12:10:59,106 [INFO ]  Generated Network:
2019-09-20 12:10:59,121 [INFO ]  
----------------------------------------------------------------
        Layer (type)               Output Shape         Param #
================================================================
            Conv2d-1            [-1, 6, 28, 28]              60
       BatchNorm2d-2            [-1, 6, 28, 28]              12
              ReLU-3            [-1, 6, 28, 28]               0
         MaxPool2d-4            [-1, 6, 27, 27]               0
            Linear-5                   [-1, 95]         415,625
       BatchNorm1d-6                   [-1, 95]             190
           Dropout-7                   [-1, 95]               0
            Linear-8                  [-1, 431]          41,376
       BatchNorm1d-9                  [-1, 431]             862
          Dropout-10                  [-1, 431]               0
           Linear-11                   [-1, 49]          21,168
================================================================
Total params: 479,293
Trainable params: 479,293
Non-trainable params: 0
----------------------------------------------------------------
Input size (MB): 0.00
Forward/backward pass size (MB): 0.15
Params size (MB): 1.83
Estimated Total Size (MB): 1.98
----------------------------------------------------------------

2019-09-20 12:10:59,121 [INFO ]  Learning Parameters:
learning_rate: 0.01
optimizer: Adam (
Parameter Group 0
    amsgrad: False
    betas: (0.9, 0.999)
    eps: 1e-08
    lr: 0.01
    weight_decay: 0
)
num_epochs: 20
batch_size: 96
train_criterion: CrossEntropyLoss()
2019-09-20 12:10:59,121 [INFO ]  ##################################################
2019-09-20 12:10:59,121 [INFO ]  Epoch [1/20]
2019-09-20 12:12:29,608 [INFO ]  Train loss 1.515961
2019-09-20 12:12:29,610 [INFO ]  Train accuracy 58.231659
2019-09-20 12:12:50,587 [INFO ]  Test accuracy 57.724334
2019-09-20 12:12:50,595 [INFO ]  ##################################################
2019-09-20 12:12:50,596 [INFO ]  Epoch [3/20]
2019-09-20 12:20:26,863 [INFO ]  Train loss 1.454122
2019-09-20 12:20:26,864 [INFO ]  Train accuracy 59.897142
2019-09-20 12:20:47,805 [INFO ]  Test accuracy 58.437749
2019-09-20 12:20:47,817 [INFO ]  ##################################################
2019-09-20 12:20:47,817 [INFO ]  Epoch [4/20]
2019-09-20 12:20:57,556 [INFO ]  Finished 2.0652622883106155% of training
2019-09-20 12:20:57,564 [INFO ]  Train loss 1.392707
2019-09-20 12:20:57,565 [INFO ]  Train accuracy 60.770831
2019-09-20 12:21:18,753 [INFO ]  Test accuracy 59.485820
2019-09-20 12:21:18,754 [INFO ]  Test Scores: [54.99260426807129, 57.72433399090888, 58.43774869961723, 59.48581991315176]
2019-09-20 12:21:18,754 [INFO ]  Completed: False
2019-09-20 12:21:18,976 [INFO ]  Results for new BEST ARCH parameters: {'loss': 40.51418008684824, 'info': "{'hyperparameters': {'conv1': {'out_channels': 5, 'kernel_size': 3, 'stride': 3, 'padding': 1}, 'conv2_active': False, 'conv2': {'out_channels': 8, 'kernel_size': 2, 'stride': 2, 'padding': 1}, 'pool_type': 'max', 'pool': {'kernel_size': 4, 'stride': 1}, 'fc_layers': 3, 'fc_layer1': 64, 'fc_layer2': 299, 'fc_layer3': 227, 'fc_layer4': 128, 'optimizer': <class 'torch.optim.adam.Adam'>, 'loss': <class 'torch.nn.modules.loss.CrossEntropyLoss'>, 'batch_size': 96, 'batch_normalization': True, 'learning_rate': 0.01, 'weight_decay': 0.0, 'dropout': 0.3, 'beta1': 0.9, 'beta2': 0.999}, 'test_scores': [54.99260426807129, 57.72433399090888, 58.43774869961723, 59.48581991315176], 'id_str': 'normal', 'id': '2_0_0'}"}
2019-09-20 12:21:18,979 [INFO ]  WORKER: registered result for job (2, 0, 0) with dispatcher
2019-09-20 12:21:19,008 [INFO ]  WORKER: start processing job (2, 0, 2)
2019-09-20 12:21:21,222 [INFO ]  Hyperparameters:{'conv1': {'out_channels': 8, 'kernel_size': 3, 'stride': 3, 'padding': 1}, 'conv2_active': True, 'conv2': {'out_channels': 13, 'kernel_size': 2, 'stride': 1, 'padding': 1}, 'pool_type': 'max', 'pool': {'kernel_size': 2, 'stride': 1}, 'fc_layers': 3, 'fc_layer1': 477, 'fc_layer2': 230, 'fc_layer3': 91, 'fc_layer4': 128, 'optimizer': <class 'torch.optim.adam.Adam'>, 'loss': <class 'torch.nn.modules.loss.CrossEntropyLoss'>, 'batch_size': 96, 'batch_normalization': True, 'learning_rate': 0.01, 'weight_decay': 0.0, 'dropout': 0.3, 'beta1': 0.9, 'beta2': 0.999}
2019-09-20 12:21:21,222 [INFO ]  Generated Network:
2019-09-20 12:21:21,241 [INFO ]  
----------------------------------------------------------------
        Layer (type)               Output Shape         Param #
================================================================
            Conv2d-1            [-1, 8, 10, 10]              80
       BatchNorm2d-2            [-1, 8, 10, 10]              16
              ReLU-3            [-1, 8, 10, 10]               0
            Conv2d-4           [-1, 13, 11, 11]             429
       BatchNorm2d-5           [-1, 13, 11, 11]              26
              ReLU-6           [-1, 13, 11, 11]               0
         MaxPool2d-7           [-1, 13, 10, 10]               0
            Linear-8                  [-1, 477]         620,577
       BatchNorm1d-9                  [-1, 477]             954
          Dropout-10                  [-1, 477]               0
           Linear-11                  [-1, 230]         109,940
      BatchNorm1d-12                  [-1, 230]             460
          Dropout-13                  [-1, 230]               0
           Linear-14                   [-1, 91]          21,021
      BatchNorm1d-15                   [-1, 91]             182
          Dropout-16                   [-1, 91]               0
           Linear-17                   [-1, 49]           4,508
================================================================
Total params: 758,193
Trainable params: 758,193
Non-trainable params: 0
----------------------------------------------------------------
Input size (MB): 0.00
Forward/backward pass size (MB): 0.08
Params size (MB): 2.89
Estimated Total Size (MB): 2.98
----------------------------------------------------------------

2019-09-20 12:21:21,241 [INFO ]  Learning Parameters:
learning_rate: 0.01
optimizer: Adam (
Parameter Group 0
    amsgrad: False
    betas: (0.9, 0.999)
    eps: 1e-08
    lr: 0.01
    weight_decay: 0
)
num_epochs: 20
batch_size: 96
train_criterion: CrossEntropyLoss()
2019-09-20 12:21:21,241 [INFO ]  ##################################################
2019-09-20 12:21:21,241 [INFO ]  Epoch [1/20]
2019-09-20 12:22:04,904 [INFO ]  Train loss 0.598389
2019-09-20 12:22:04,905 [INFO ]  Train accuracy 83.383467
2019-09-20 12:22:51,977 [INFO ]  Test accuracy 83.482499
2019-09-20 12:22:51,979 [INFO ]  ##################################################
2019-09-20 12:22:51,979 [INFO ]  Epoch [2/20]
DONE
Finished at Fri Sep 20 12:23:56 CEST 2019
