2019-09-20 11:51:17,507 [INFO ]  Hyperparameters:{'conv1': {'out_channels': 5, 'kernel_size': 3, 'stride': 3, 'padding': 1}, 'conv2_active': False, 'conv2': {'out_channels': 8, 'kernel_size': 2, 'stride': 2, 'padding': 1}, 'pool_type': 'max', 'pool': {'kernel_size': 4, 'stride': 1}, 'fc_layers': 3, 'fc_layer1': 64, 'fc_layer2': 299, 'fc_layer3': 227, 'fc_layer4': 128, 'optimizer': <class 'torch.optim.adam.Adam'>, 'loss': <class 'torch.nn.modules.loss.CrossEntropyLoss'>, 'batch_size': 96, 'batch_normalization': True, 'learning_rate': 0.01, 'weight_decay': 0.0, 'dropout': 0.3, 'beta1': 0.9, 'beta2': 0.999}
2019-09-20 11:51:17,508 [INFO ]  Generated Network:
2019-09-20 11:51:17,513 [INFO ]  
----------------------------------------------------------------
        Layer (type)               Output Shape         Param #
================================================================
            Conv2d-1            [-1, 5, 10, 10]              50
       BatchNorm2d-2            [-1, 5, 10, 10]              10
              ReLU-3            [-1, 5, 10, 10]               0
         MaxPool2d-4              [-1, 5, 7, 7]               0
            Linear-5                   [-1, 64]          15,744
       BatchNorm1d-6                   [-1, 64]             128
           Dropout-7                   [-1, 64]               0
            Linear-8                  [-1, 299]          19,435
       BatchNorm1d-9                  [-1, 299]             598
          Dropout-10                  [-1, 299]               0
           Linear-11                  [-1, 227]          68,100
      BatchNorm1d-12                  [-1, 227]             454
          Dropout-13                  [-1, 227]               0
           Linear-14                   [-1, 49]          11,172
================================================================
Total params: 115,691
Trainable params: 115,691
Non-trainable params: 0
----------------------------------------------------------------
Input size (MB): 0.00
Forward/backward pass size (MB): 0.03
Params size (MB): 0.44
Estimated Total Size (MB): 0.47
----------------------------------------------------------------

2019-09-20 11:51:17,513 [INFO ]  Learning Parameters:
learning_rate: 0.01
optimizer: Adam (
Parameter Group 0
    amsgrad: False
    betas: (0.9, 0.999)
    eps: 1e-08
    lr: 0.01
    weight_decay: 0
)
num_epochs: 20
batch_size: 96
train_criterion: CrossEntropyLoss()
2019-09-20 11:51:17,513 [INFO ]  ##################################################
2019-09-20 11:51:17,513 [INFO ]  Epoch [1/20]
2019-09-20 12:03:58,023 [INFO ]  Train loss 1.764007
2019-09-20 12:03:58,024 [INFO ]  Train accuracy 51.474187
2019-09-20 12:04:19,290 [INFO ]  Test accuracy 54.992604
2019-09-20 12:04:19,312 [INFO ]  ##################################################
2019-09-20 12:04:19,312 [INFO ]  Epoch [2/20]
2019-09-20 12:12:29,608 [INFO ]  Train loss 1.515961
2019-09-20 12:12:29,610 [INFO ]  Train accuracy 58.231659
2019-09-20 12:12:50,587 [INFO ]  Test accuracy 57.724334
2019-09-20 12:12:50,595 [INFO ]  ##################################################
2019-09-20 12:12:50,596 [INFO ]  Epoch [3/20]
2019-09-20 12:20:26,863 [INFO ]  Train loss 1.454122
2019-09-20 12:20:26,864 [INFO ]  Train accuracy 59.897142
2019-09-20 12:20:47,805 [INFO ]  Test accuracy 58.437749
2019-09-20 12:20:47,817 [INFO ]  ##################################################
2019-09-20 12:20:47,817 [INFO ]  Epoch [4/20]
2019-09-20 12:20:57,556 [INFO ]  Finished 2.0652622883106155% of training
2019-09-20 12:20:57,564 [INFO ]  Train loss 1.392707
2019-09-20 12:20:57,565 [INFO ]  Train accuracy 60.770831
2019-09-20 12:21:18,753 [INFO ]  Test accuracy 59.485820
2019-09-20 12:21:18,754 [INFO ]  Test Scores: [54.99260426807129, 57.72433399090888, 58.43774869961723, 59.48581991315176]
2019-09-20 12:21:18,754 [INFO ]  Completed: False
